Mutex 1 create: 784	Current Time: 1178858535
Mutex 2 create: 382	Current Time: 1178865035
Mutex 3 create: 383	Current Time: 1178871628
RecTaskInitialize: 9138	Current Time: 1178887070
RecTask1 create: 4765	Current Time: 1178898680
RecTask2 create: 6970	Current Time: 1178912337
RecTask3 create: 4850	Current Time: 1178923978
RecTask synch release: 2112	Current Time: 1178932971
(RCT)Inserting App Task One into RdyHeap: 763	Current Tick: 1179047667	Time 3
(RCT)Inserting App Task Two into RdyHeap: 523	Current Tick: 1179060272	Time 4
(RCT)Inserting App Task Three into RdyHeap: 670	Current Tick: 1179071064	Time 4
AppTaskThree mutex 2 pend: 1024	Current Time: 1179130388
AppTaskThree mutex 1 pend: 315	Current Time: 1237650050
AppTaskThree mutex 1 post: 561	Current Time: 1296174662
AppTaskThree mutex 2 post: 1029	Current Time: 1296183381
AppTaskOne mutex 1 pend: 319	Current Time: 1362067886
AppTaskOne mutex 2 pend: 316	Current Time: 1479106703
(RCT)Inserting App Task Three into RdyHeap: 1057	Current Tick: 1528960527	Time 7002
AppTaskOne mutex 2 post: 333	Current Time: 1544998080
AppTaskOne mutex 2 pend: 316	Current Time: 1479106703
(RCT)Inserting App Task Three into RdyHeap: 1057	Current Tick: 1528960527	Time 7002
AppTaskThree mutex 2 pend: 554	Current Time: 1545009703
AppTaskThree mutex 1 pend: 315	Current Time: 1603531533
AppTaskThree mutex 1 post: 334	Current Time: 1662055505
AppTaskThree mutex 2 post: 562	Current Time: 1662066261
(RCT)Inserting App Task Two into RdyHeap: 1015	Current Tick: 1728960494	Time 11002
(RCT)Inserting App Task Three into RdyHeap: 1015	Current Tick: 1878960535	Time 14002
AppTaskThree mutex 2 pend: 319	Current Time: 1878988961
AppTaskThree mutex 1 pend: 315	Current Time: 1937512547
AppTaskThree mutex 1 post: 314	Current Time: 1996036115
AppTaskThree mutex 2 post: 310	Current Time: 1996044111
(RCT)Inserting App Task One into RdyHeap: 1015	Current Tick: 2178960430	Time 20002
AppTaskOne mutex 1 pend: 319	Current Time: 2178988293
(RCT)Inserting App Task Three into RdyHeap: 1057	Current Tick: 2228960411	Time 21002
(RCT)Inserting App Task Two into RdyHeap: 1292	Current Tick: 2278960631	Time 22002
AppTaskOne mutex AppTaskOne mutex 2 pend: 316	Current Time: 2296098533
AppTaskOne mutex 2 post: 333	Current Time: 2361937748
AppTaskOne mutex 1 post: 1016	Current Time: 2361946097
AppTaskThree mutex 2 pend: 1024	Current Time: 2361960028
AppTaskThree mutex 1 pend: 315	Current Time: 2420483880
AppTaskThree mutex 1 post: 559	Current Time: 2479010161
AppTaskThree mutex 2 post: 1027	Current Time: 2479019204
2 pend: 316	Current Time: 2296098533
AppTaskOne mutex 2 post: 333	Current Time: 2361937748
AppTaskOne mutex 1 post: 1016	Current Time: 2361946097
AppTaskThree mutex 2 pend: 1024	Current Time: 2361960028
AppTaskThree mutex 1 pend: 315	Current Time: 2420483880
AppTaskThree mutex 1 post: 559	Current Time: 2479010161
AppTaskThree mutex 2 post: 1027	Current Time: 2479019204
(RCT)Inserting App Task Three into RdyHeap: 1015	Current Tick: 2578960302	Time 28002
AppTaskThree mutex 2 pend: 319	Current Time: 2578988732
AppTaskThree mutex 1 pend: 315	Current Time: 2637512316
AppTaskThree mutex 1 post: 314	Current Time: 2696035892
AppTaskThree mutex 2 post: 310	Current Time: 2696043890
(RCT)Inserting App Task Two into RdyHeap: 1015	Current Tick: 2828960251	Time 33002
(RCT)Inserting App Task Three into RdyHeap: 1015	Current Tick: 2928960285	Time 35002
AppTaskThree mutex 2 pend: 319	Current Time: 2928988716
AppTaskThree mutex 1 pend: 315	Current Time: 2987512849
AppTaskThree mutex 1 post: 314	Current Time: 3046036979
AppTaskThree mutex 2 post: 310	Current Time: 3046044977
(RCT)Inserting App Task One into RdyHeap: 1015	Current Tick: 3178960226	Time 40002
AppTaskOne mutex 1 pend: 319	Current Time: 3178988092
(RCT)Inserting App Task Three into RdyHeap: 1057	Current Tick: 3278960237	Time 42002
AppTaskOne mutex 2 pend: 316	Current Time: 3296070165
AppTaskOne mutex 2 post: 333	Current Time: 3361911988
AppTaskOne mutex 1 post: 614	Current Time: 336AppTaskOne mutex 2 pend: 316	Current Time: 3296070165
AppTaskOne mutex 2 post: 333	Current Time: 3361911988
AppTaskOne mutex 1 post: 614	Current Time: 3361919936
AppTaskThree mutex 2 pend: 554	Current Time: 3361959379
(RCT)Inserting App Task Two into RdyHeap: 1292	Current Tick: 3378960447	Time 44002
AppTaskThree mutex 1 pend: 315	Current Time: 3420559365
AppTaskThree mutex 1 post: 559	Current Time: 3479083627
AppTaskThree mutex 2 post: 1027	Current Time: 3479092231
1e: 3479092231
(RCT)Inserting App Task Three into RdyHeap: 1015	Current Tick: 3628960165	Time 49002
AppTaskThree mutex 2 pend: 319	Current Time: 3628988597
AppTaskThree mutex 1 pend: 315	Current Time: 3687512729
AppTaskThree mutex 1 post: 314	Current Time: 3746036851
AppTaskThree mutex 2 post: 310	Current Time: 3746044850
(RCT)Inserting App Task Two into RdyHeap: 1015	Current Tick: 3928960161	Time 55002
(RCT)Inserting App Task Three into RdyHeap: 1074	Current Tick: 3978960134	Time 56002
AppTaskThree mutex 2 pend: 554	Current Time: 3978988798
AppTaskThree mutex 1 pend: 315	Current Time: 4037512937
AppTaskThree mutex 1 post: 334	Current Time: 4096037085
AppTaskThree mutex 2 post: 562	Current Time: 4096045336
(RCT)Inserting App Task One into RdyHeap: 1015	Current Tick: 4178960149	Time 60002
AppTaskOne mutex 1 pend: 319	Current Time: 4178988015
AppTaskOne mutex 2 pend: 316	Current Time: 1060810
(RCT)Inserting App Task Three into RdyHeap: 1057	Current Tick: 33992781	Time 63002
AppTaskOne mutex 2 post: 333	Current Time: 66953734
AppTaskOne mutex 1 post: 614	Current Time: 66961399
AppTaskThree mutex 2 pend: 319	Current Time: 66991703
AppTaskThree mutex 1 pend: 315	Current Time: 125515517
(RCT)Inserting App Task Two into RdyHeap: 1057	Current Tick: 183992751	Time 66002
AppTaskThree mutex 1 post: 334	Current Time: 184093548
AppTaskThree mutex 2 post: 562	Current Time: 184101487
(RCT)Inserting App Task Three into RdyHeap: 1015	Current Tick: 383992755	Time 70002
AppTaskThree mutex 2 pend: 319	Current Time: 384020488
AppTaskThree mutex 1 pend: 315	Current Time: 442544535
AppTaskThree mutex 1 post: 314	Current Time: 501068583
AppTaskThree mutex 2 post: 310	Current Time: 501076498
(RCT)Inserting App Task Two into RdyHeap: 1026	Current Tick: 733992710	Time 77002
(RCT)Inserting App Task Three into RdyHeap: 910	Current Tick: 734003897	Time 77002
AppTaskThree mutex 2 pend: 554	Current Time: 734050054
AppTaskThree mutex 1 pend: 315	Current Time: 792571977
AppTaskThree mutex 1 post: 334	Current Time: 851098175
AppTaskThree mutex 2 post: 562	Current Time: 851106347
(RCT)Inserting App Task One into RdyHeap: 1022	Current Tick: 883992616	Time 80002
AppTaskOne mutex 1 pend: 319	Current Time: 917020814
AppTaskOne mutex 2 pend: 316	Current Time: 1034062802
(RCT)Inserting App Task Three into RdyHeap: 1057	Current Tick: 1083992641	Time 84002
AppTaskOne mutex 2 post: 333	Current Time: 1099956897
AppTaskOne mutex 1 post: 614	CurrenAppTaskOne mutex 2 post: 333	Current Time: 1099956897
AppTaskOne mutex 1 post: 614	Current Time: 1099964726
AppTaskThree mutex 2 pend: 554	Current Time: 1099991783
AppTaskThree mutex 1 pend: 315	Current Time: 1158513996
AppTaskThree mutex 1 post: 334	Current Time: 1217038354
AppTaskThree mutex 2 post: 562	Current Time: 1217048971
AppTaskThree mutex 2 post: 562	Currt Time: 1099964726
AppTaskThree mutex 2 pend: 554	Current Time: 1099991783
AppTaskThree mutex 1 pend: 315	Current Time: 1158513996
AppTaskThree mutex 1 post: 334	Current Time: 1217038354
AppTaskThree mutex 2 post: 562	Current Time: 1217048971
(RCT)Inserting App Task Two into RdyHeap: 1015	Current Tick: 1283992590	Time 88002
(RCT)Inserting App Task Three into RdyHeap: 1015	Current Tick: 1433992525	Time 91002
AppTaskThree mutex 2 pend: 319	Current Time: 1434020648
AppTaskThree mutex 1 pend: 315	Current Time: 1492544776
AppTaskThree mutex 1 post: 314	Current Time: 1551068896
AppTaskThree mutex 2 post: 310	Current Time: 1551076892
(RCT)Inserting App Task Three into RdyHeap: 1189	Current Tick: 1783992698	Time 98002
AppTaskThree mutex 2 pend: 319	Current Time: 1784021026
(RCT)Inserting App Task Two into RdyHeap: 1057	Current Tick: 1833992506	Time 99002
